"","estimate","std.error","statistic","df","p.value"
"(Intercept)",14.5486385492245,3.15091514106258,4.61727399752131,116.038835892771,1.01188319545642e-05
"incpart",0.704023441269629,0.0658385294101543,10.6931829671312,123.999575162937,0
